name,description,prep_time,done
Chocolate chip cookies,"Ingrédients : beurre, sucre de canne, oeuf, farine, levure, sel, noix, chocolat.Préchauffer le four à 190°C (th 6-7).  Mélanger le beurre ramolli, le sucre et l'oeuf entier.  Ajouter la farine, la levure et le...",28 min,false
Pesto de roquette,"Ingrédients : roquette,amande,parmesan,huile d’olive vierge extra Costa d’Oro L’Italiano,ail,sel,poivre,roquette,amande,parmesan,huile d’olive vierge extra Costa d’Oro...",15 min,true
